{"level":"info","message":"Request Body ","timestamp":"2020-12-14T07:19:38.516Z"}
{"level":"info","message":"Request Query ","timestamp":"2020-12-14T07:19:38.516Z"}
{"host":"localhost:4000","connection":"keep-alive","sec-ch-ua":"\"Google Chrome\";v=\"87\", \" Not;A Brand\";v=\"99\", \"Chromium\";v=\"87\"","accept":"application/json, text/plain, */*","sec-ch-ua-mobile":"?0","user-agent":"Mozilla/5.0 (Windows NT 10.0; Win64; x64) AppleWebKit/537.36 (KHTML, like Gecko) Chrome/87.0.4280.88 Safari/537.36","origin":"http://localhost:4200","sec-fetch-site":"same-site","sec-fetch-mode":"cors","sec-fetch-dest":"empty","referer":"http://localhost:4200/","accept-encoding":"gzip, deflate, br","accept-language":"en-US,en;q=0.9,kn;q=0.8","if-none-match":"W/\"11d-XTAkukSFoC6DpBcKX4FLQNRnaF4\"","level":"info","message":"Request Headers ","timestamp":"2020-12-14T07:19:38.516Z"}
{"message":"Files retrieved successfully!","Files":[],"level":"info","timestamp":"2020-12-14T07:19:38.520Z"}
{"level":"info","message":"Request Body ","timestamp":"2020-12-14T07:19:50.841Z"}
{"level":"info","message":"Request Query ","timestamp":"2020-12-14T07:19:50.841Z"}
{"host":"localhost:4000","connection":"keep-alive","content-length":"817681","sec-ch-ua":"\"Google Chrome\";v=\"87\", \" Not;A Brand\";v=\"99\", \"Chromium\";v=\"87\"","accept":"application/json, text/plain, */*","sec-ch-ua-mobile":"?0","user-agent":"Mozilla/5.0 (Windows NT 10.0; Win64; x64) AppleWebKit/537.36 (KHTML, like Gecko) Chrome/87.0.4280.88 Safari/537.36","content-type":"multipart/form-data; boundary=----WebKitFormBoundary7ZAB7HBRIbs2EWVs","origin":"http://localhost:4200","sec-fetch-site":"same-site","sec-fetch-mode":"cors","sec-fetch-dest":"empty","referer":"http://localhost:4200/","accept-encoding":"gzip, deflate, br","accept-language":"en-US,en;q=0.9,kn;q=0.8","level":"info","message":"Request Headers ","timestamp":"2020-12-14T07:19:50.841Z"}
{"message":"successfully uploaded a File","fileCreated":{"_id":"5fd7121661bdac36b8395192","name":"Nature","uploadedFile":"http://localhost:4000/public/nature.jpg"},"level":"info","timestamp":"2020-12-14T07:19:50.869Z"}
{"level":"info","message":"Request Body ","timestamp":"2020-12-14T07:19:50.901Z"}
{"level":"info","message":"Request Query ","timestamp":"2020-12-14T07:19:50.901Z"}
{"host":"localhost:4000","connection":"keep-alive","sec-ch-ua":"\"Google Chrome\";v=\"87\", \" Not;A Brand\";v=\"99\", \"Chromium\";v=\"87\"","accept":"application/json, text/plain, */*","sec-ch-ua-mobile":"?0","user-agent":"Mozilla/5.0 (Windows NT 10.0; Win64; x64) AppleWebKit/537.36 (KHTML, like Gecko) Chrome/87.0.4280.88 Safari/537.36","origin":"http://localhost:4200","sec-fetch-site":"same-site","sec-fetch-mode":"cors","sec-fetch-dest":"empty","referer":"http://localhost:4200/","accept-encoding":"gzip, deflate, br","accept-language":"en-US,en;q=0.9,kn;q=0.8","if-none-match":"W/\"36-AzaxzSZ4zwpPU6i96c2BSO/we/0\"","level":"info","message":"Request Headers ","timestamp":"2020-12-14T07:19:50.901Z"}
{"message":"Files retrieved successfully!","Files":[{"_id":"5fd7121661bdac36b8395192","name":"Nature","uploadedFile":"http://localhost:4000/public/nature.jpg","__v":0}],"level":"info","timestamp":"2020-12-14T07:19:50.905Z"}
